^\\BANNER.MAIN.AD.RIT.EDU\STUDENTS\TJM9563\IGMPROFILE\DESKTOP\CLASSES\SPRING 2014\DSA2\PARTICLES\PARTICLES\MAIN.CPP
\\BANNER.MAIN.AD.RIT.EDU\STUDENTS\TJM9563\IGMPROFILE\DESKTOP\CLASSES\SPRING 2014\DSA2\PARTICLES\PARTICLES\RELEASE\MAIN.OBJ
\\BANNER.MAIN.AD.RIT.EDU\STUDENTS\TJM9563\IGMPROFILE\DESKTOP\CLASSES\SPRING 2014\DSA2\PARTICLES\PARTICLES\RELEASE\VC110.PDB
